\babel@toc {italian}{}
\babel@toc {italian}{}
\beamer@sectionintoc {1}{Esercizio}{2}{0}{1}
\beamer@sectionintoc {2}{Semantica}{3}{0}{2}
\beamer@sectionintoc {3}{Grammatica}{5}{0}{3}
\beamer@sectionintoc {4}{Parser}{12}{0}{4}
\beamer@sectionintoc {5}{Esecuzione}{20}{0}{5}
\beamer@sectionintoc {6}{Interprete}{26}{0}{6}
